%YAML 1.1
%TAG !u! tag:unity3d.com,2011:
--- !u!114 &11400000
MonoBehaviour:
  m_ObjectHideFlags: 0
  m_CorrespondingSourceObject: {fileID: 0}
  m_PrefabInstance: {fileID: 0}
  m_PrefabAsset: {fileID: 0}
  m_GameObject: {fileID: 0}
  m_Enabled: 1
  m_EditorHideFlags: 0
  m_Script: {fileID: 11500000, guid: af7181f404f1447c0a7a17b3070b952b, type: 3}
  m_Name: Packages_Packages_Sprite Shape Profile
  m_EditorClassIdentifier: 
  m_Angles:
  - m_Start: -90
    m_End: 270
    m_Order: 90
    m_Sprites:
    - {fileID: 21300000, guid: 0ae2b74b1edd14bb18dd7b65ae916a54, type: 3}
  m_FillTexture: {fileID: 2800000, guid: 89e0806aa7a8e0c499ce3d53e19ab1bd, type: 3}
  m_CornerSprites:
  - m_CornerType: 0
    m_Sprites:
    - {fileID: 21300000, guid: 608e61deb05c54660bebf5a4dd2ee02d, type: 3}
  - m_CornerType: 1
    m_Sprites:
    - {fileID: 21300000, guid: 608e61deb05c54660bebf5a4dd2ee02d, type: 3}
  - m_CornerType: 2
    m_Sprites:
    - {fileID: 21300000, guid: 608e61deb05c54660bebf5a4dd2ee02d, type: 3}
  - m_CornerType: 3
    m_Sprites:
    - {fileID: 21300000, guid: 608e61deb05c54660bebf5a4dd2ee02d, type: 3}
  - m_CornerType: 4
    m_Sprites:
    - {fileID: 21300000, guid: 608e61deb05c54660bebf5a4dd2ee02d, type: 3}
  - m_CornerType: 5
    m_Sprites:
    - {fileID: 21300000, guid: 608e61deb05c54660bebf5a4dd2ee02d, type: 3}
  - m_CornerType: 6
    m_Sprites:
    - {fileID: 21300000, guid: 608e61deb05c54660bebf5a4dd2ee02d, type: 3}
  - m_CornerType: 7
    m_Sprites:
    - {fileID: 21300000, guid: 608e61deb05c54660bebf5a4dd2ee02d, type: 3}
  m_FillOffset: -0.037
  m_UseSpriteBorders: 1
